{
    # Size of the images during training (x, y)
    'image_size': (640, 640),

    # Number of classes in output of network, including the background
    # class.  Setting num_classes=1 means just a single class, no
    # background.  Otherwise, num_classes should be one higher than
    # the number of actual classes, to make room for the background
    # class.
    'num_classes': 1,
    
    # Spot size of atomic columns in Angstrom
    'spotsize': 0.4,

    # Image resolution range in pixels/Angstrom
    'sampling': (0.07, 0.08),

    # Focal series if not None.  The three numbers are number of images, change in focus, random part of change.
    'multifocus': None,   

    ## Noise parameters 
    # Range of the logarithm (base 10) of the dose in electrons/A^2
    'log_dose': (2, 4),
    # Range of blur
    'blur': (0.1, 0.8),

    # Range of focal spread
    'focal_spread': (5, 20),

    ## CTF Parameters (values from microscope at Nanolab)
    # Defocus range in Angstrom
    'defocus': (-200,200),
    # Spherical abberation in Angstrom (1 micrometer = 1e4 A)
    'ctf_c30': (0, 1.5*83000),
    # 2-fold astigmatism in Angstrom
    'ctf_c12': (0, 1.5*16),
    # Axial coma in Angstrom
    #'ctf_c21': (0, 1.5*410),
    # 3-fold astigmatism in Angstrom
    #'ctf_c23': (0, 1.5*1220),
    # Star abberation in Angstrom
    #'ctf_c32': (0, 1.5*21000),
    # 4-fold astigmatism in Angstrom
    #'ctf_c34': (0, 1.5*83000),
    # 5-fold astigmatism in Angstrom
    #'ctf_c45': (0, 1.5*5280000),

    ## MTF Parameters
    # Range of MTF parameters (same names as in paper, except c0 which is 1.0 in paper).
    #'mtf_c0': (0.12, 0.16),
    'mtf_c1': (-0.6, 0.2),
    'mtf_c2': (0.1, 0.2),
    'mtf_c3': (0.6, 1.8),

    # normalization distance in Angstrom
    #'normalizedistance': 12.0,

    # How many images to save in debug folder (None=none, True=all).
    'debug': 100,
    
    # If a seed to the random number generator should be used
    # Can be set to True to generate a random seed that is reused in testing run
    # or set to a specific seed that is used for reproducible training.
    # Setting it to None disable deterministic testing as well.
    'seed': [998616271, 738814483, 960996334, 235280404, 560394456],
}

